{
  "service": {
    "service": "octo-kimble-datalake",
    "serviceObject": {
      "name": "octo-kimble-datalake"
    },
    "provider": {
      "name": "aws",
      "runtime": "dotnetcore3.1",
      "region": "us-east-1",
      "stage": "local",
      "environment": {
        "ReportConfigs__FileType": "Parquet",
        "ReportConfigs__BucketName": "local-us-east-1-octo-kimble-datalake",
        "ReportConfigs__SchemaFiles": "#SchemaFiles",
        "ReportConfigs__ParameterStoreName": "/lcp/datalate/kimble/credentials",
        "AwsConfigs__AccessKey": "AKIA2ETFO5CODNBAGSWJ",
        "AwsConfigs__SecretKey": "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",
        "AwsConfigs__Region": "us-east-1",
        "KimbleConfig__AuthenticationMode": "JWT",
        "KimbleConfig__Username": "jretuya@lemongrassconsulting.com.sandbox1",
        "KimbleConfig__Password": "ac5f2fda-d280-46ae-859d-ad97b97674f6",
        "KimbleConfig__ClientId": "3MVG9LlLrkcRhGHZ75_1zzxBX1lLayjyWpFXl1ZlsJUTNtM9BIVzQxgKK8lijoHmaRCiwa.fhz5JFaGRkDbgt",
        "KimbleConfig__ClientSecret": "97C6C01FE84EAFC539C44E58AA653FF9295BC2489721D78AEACD9D6E6A3D8DB5",
        "KimbleConfig__ServiceUri": "https://test.salesforce.com",
        "KimbleConfig__TokenEndpoint": "services/oauth2/token"
      },
      "lambdaHashingVersion": "20201221",
      "memorySize": 256,
      "timeout": 600,
      "deploymentBucket": "local-us-east-1-octo-kimble-datalake-deployment",
      "tags": {
        "Owner": "Beta Team"
      },
      "iam": {
        "role": {
          "statements": [
            {
              "Effect": "Allow",
              "Action": [
                "s3:ListBucket",
                "s3:GetObject",
                "s3:GetObjectAcl",
                "s3:PutObject",
                "s3:PutObjectAcl"
              ],
              "Resource": [
                "arn:aws:s3:::local-us-east-1-octo-kimble-datalake",
                "arn:aws:s3:::local-us-east-1-octo-kimble-datalake/*"
              ]
            }
          ]
        }
      },
      "versionFunctions": true,
      "deploymentBucketObject": {
        "name": "local-us-east-1-octo-kimble-datalake-deployment",
        "serverSideEncryption": "AES256",
        "blockPublicAccess": true,
        "tags": {
          "Owner": "Beta Team"
        }
      },
      "compiledCloudFormationTemplate": {
        "AWSTemplateFormatVersion": "2010-09-09",
        "Description": "The AWS CloudFormation template for this Serverless application",
        "Resources": {
          "DataExtractorLogGroup": {
            "Type": "AWS::Logs::LogGroup",
            "Properties": {
              "LogGroupName": "/aws/lambda/local-octo-kimble-datalake-dataextractor"
            }
          },
          "IamRoleLambdaExecution": {
            "Type": "AWS::IAM::Role",
            "Properties": {
              "AssumeRolePolicyDocument": {
                "Version": "2012-10-17",
                "Statement": [
                  {
                    "Effect": "Allow",
                    "Principal": {
                      "Service": [
                        "lambda.amazonaws.com"
                      ]
                    },
                    "Action": [
                      "sts:AssumeRole"
                    ]
                  }
                ]
              },
              "Policies": [
                {
                  "PolicyName": {
                    "Fn::Join": [
                      "-",
                      [
                        "octo-kimble-datalake",
                        "local",
                        "lambda"
                      ]
                    ]
                  },
                  "PolicyDocument": {
                    "Version": "2012-10-17",
                    "Statement": [
                      {
                        "Effect": "Allow",
                        "Action": [
                          "logs:CreateLogStream",
                          "logs:CreateLogGroup"
                        ],
                        "Resource": [
                          {
                            "Fn::Sub": "arn:${AWS::Partition}:logs:${AWS::Region}:${AWS::AccountId}:log-group:/aws/lambda/local-octo-kimble-datalake-dataextractor:*"
                          }
                        ]
                      },
                      {
                        "Effect": "Allow",
                        "Action": [
                          "logs:PutLogEvents"
                        ],
                        "Resource": [
                          {
                            "Fn::Sub": "arn:${AWS::Partition}:logs:${AWS::Region}:${AWS::AccountId}:log-group:/aws/lambda/local-octo-kimble-datalake-dataextractor:*:*"
                          }
                        ]
                      },
                      {
                        "$ref": "$[\"service\"][\"provider\"][\"iam\"][\"role\"][\"statements\"][0]"
                      }
                    ]
                  }
                }
              ],
              "Path": "/",
              "RoleName": {
                "Fn::Join": [
                  "-",
                  [
                    "octo-kimble-datalake",
                    "local",
                    {
                      "Ref": "AWS::Region"
                    },
                    "lambdaRole"
                  ]
                ]
              }
            }
          },
          "DataExtractorLambdaFunction": {
            "Type": "AWS::Lambda::Function",
            "Properties": {
              "Code": {
                "S3Bucket": "local-us-east-1-octo-kimble-datalake-deployment",
                "S3Key": "serverless/octo-kimble-datalake/local/1628680290676-2021-08-11T11:11:30.676Z/src/KimbleDatastream/bin/release/netcoreapp3.1/KimbleDatastream-package.zip"
              },
              "Handler": "KimbleDatastream::KimbleDatastream.Functions.DataExtractorFunction::Run",
              "Runtime": "dotnetcore3.1",
              "FunctionName": "local-octo-kimble-datalake-dataextractor",
              "MemorySize": 256,
              "Timeout": 600,
              "Tags": [
                {
                  "Key": "Owner",
                  "Value": "Beta Team"
                }
              ],
              "Environment": {
                "Variables": {
                  "ReportConfigs__FileType": "Parquet",
                  "ReportConfigs__BucketName": "local-us-east-1-octo-kimble-datalake",
                  "ReportConfigs__SchemaFiles": "#SchemaFiles",
                  "ReportConfigs__ParameterStoreName": "/lcp/datalate/kimble/credentials",
                  "AwsConfigs__AccessKey": "AKIA2ETFO5CODNBAGSWJ",
                  "AwsConfigs__SecretKey": "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",
                  "AwsConfigs__Region": "us-east-1",
                  "KimbleConfig__AuthenticationMode": "JWT",
                  "KimbleConfig__Username": "jretuya@lemongrassconsulting.com.sandbox1",
                  "KimbleConfig__Password": "ac5f2fda-d280-46ae-859d-ad97b97674f6",
                  "KimbleConfig__ClientId": "3MVG9LlLrkcRhGHZ75_1zzxBX1lLayjyWpFXl1ZlsJUTNtM9BIVzQxgKK8lijoHmaRCiwa.fhz5JFaGRkDbgt",
                  "KimbleConfig__ClientSecret": "97C6C01FE84EAFC539C44E58AA653FF9295BC2489721D78AEACD9D6E6A3D8DB5",
                  "KimbleConfig__ServiceUri": "https://test.salesforce.com",
                  "KimbleConfig__TokenEndpoint": "services/oauth2/token"
                }
              },
              "Role": {
                "Fn::GetAtt": [
                  "IamRoleLambdaExecution",
                  "Arn"
                ]
              }
            },
            "DependsOn": [
              "DataExtractorLogGroup"
            ]
          },
          "DataExtractorLambdaVersionnAnvB8zZmWgyi8x8hm1WxivvPJZrEFl14aPl3SV324": {
            "Type": "AWS::Lambda::Version",
            "DeletionPolicy": "Retain",
            "Properties": {
              "FunctionName": {
                "Ref": "DataExtractorLambdaFunction"
              },
              "CodeSha256": "tdiI2ohI+BxWwq/h4Apngm4Lucq/zC/YVT/HTWV7Me0="
            }
          },
          "DataExtractorEventsRuleSchedule1": {
            "Type": "AWS::Events::Rule",
            "Properties": {
              "ScheduleExpression": "cron(30 0 * * ? *)",
              "State": "ENABLED",
              "Targets": [
                {
                  "Arn": {
                    "Fn::GetAtt": [
                      "DataExtractorLambdaFunction",
                      "Arn"
                    ]
                  },
                  "Id": "DataExtractorSchedule"
                }
              ]
            }
          },
          "DataExtractorLambdaPermissionEventsRuleSchedule1": {
            "Type": "AWS::Lambda::Permission",
            "Properties": {
              "FunctionName": {
                "Fn::GetAtt": [
                  "DataExtractorLambdaFunction",
                  "Arn"
                ]
              },
              "Action": "lambda:InvokeFunction",
              "Principal": "events.amazonaws.com",
              "SourceArn": {
                "Fn::GetAtt": [
                  "DataExtractorEventsRuleSchedule1",
                  "Arn"
                ]
              }
            }
          },
          "OutputBucket": {
            "Type": "AWS::S3::Bucket",
            "Properties": {
              "BucketName": "local-us-east-1-octo-kimble-datalake",
              "VersioningConfiguration": {
                "Status": "Enabled"
              },
              "BucketEncryption": {
                "ServerSideEncryptionConfiguration": [
                  {
                    "ServerSideEncryptionByDefault": {
                      "SSEAlgorithm": "AES256"
                    }
                  }
                ]
              },
              "PublicAccessBlockConfiguration": {
                "BlockPublicAcls": true,
                "BlockPublicPolicy": true,
                "IgnorePublicAcls": true,
                "RestrictPublicBuckets": true
              }
            }
          }
        },
        "Outputs": {
          "ServerlessDeploymentBucketName": {
            "Value": "local-us-east-1-octo-kimble-datalake-deployment",
            "Export": {
              "Name": "sls-octo-kimble-datalake-local-ServerlessDeploymentBucketName"
            }
          },
          "DataExtractorLambdaFunctionQualifiedArn": {
            "Description": "Current Lambda function version",
            "Value": {
              "Ref": "DataExtractorLambdaVersionnAnvB8zZmWgyi8x8hm1WxivvPJZrEFl14aPl3SV324"
            },
            "Export": {
              "Name": "sls-octo-kimble-datalake-local-DataExtractorLambdaFunctionQualifiedArn"
            }
          }
        }
      },
      "vpc": {}
    },
    "custom": {
      "tags": {
        "owner": "Beta Team"
      },
      "deploymentBucket": {
        "blockPublicAccess": true,
        "tags": [
          {
            "Key": "Owner",
            "Value": "Beta Team"
          }
        ],
        "versioning": false,
        "accelerate": false
      }
    },
    "plugins": [
      "serverless-deployment-bucket"
    ],
    "pluginsData": {},
    "functions": {
      "DataExtractor": {
        "handler": "KimbleDatastream::KimbleDatastream.Functions.DataExtractorFunction::Run",
        "name": "local-octo-kimble-datalake-dataextractor",
        "events": [
          {
            "schedule": "cron(30 0 * * ? *)"
          }
        ],
        "tags": {
          "Owner": "Beta Team"
        },
        "package": {},
        "memory": 256,
        "timeout": 600,
        "runtime": "dotnetcore3.1",
        "vpc": {},
        "versionLogicalId": "DataExtractorLambdaVersionnAnvB8zZmWgyi8x8hm1WxivvPJZrEFl14aPl3SV324"
      }
    },
    "resources": {
      "Resources": {
        "OutputBucket": {
          "Type": "AWS::S3::Bucket",
          "Properties": {
            "BucketName": "local-us-east-1-octo-kimble-datalake",
            "VersioningConfiguration": {
              "Status": "Enabled"
            },
            "BucketEncryption": {
              "ServerSideEncryptionConfiguration": [
                {
                  "ServerSideEncryptionByDefault": {
                    "SSEAlgorithm": "AES256"
                  }
                }
              ]
            },
            "PublicAccessBlockConfiguration": {
              "BlockPublicAcls": true,
              "BlockPublicPolicy": true,
              "IgnorePublicAcls": true,
              "RestrictPublicBuckets": true
            }
          }
        }
      },
      "Outputs": {}
    },
    "configValidationMode": "warn",
    "serviceFilename": "serverless_local.yml",
    "initialServerlessConfig": {
      "service": {
        "$ref": "$[\"service\"][\"serviceObject\"]"
      },
      "provider": {
        "$ref": "$[\"service\"][\"provider\"]"
      },
      "package": {
        "artifact": "src/KimbleDatastream/bin/release/netcoreapp3.1/KimbleDatastream-package.zip",
        "deploymentBucket": "local-us-east-1-octo-kimble-datalake-deployment",
        "artifactDirectoryName": "serverless/octo-kimble-datalake/local/1628680290676-2021-08-11T11:11:30.676Z"
      },
      "functions": {
        "$ref": "$[\"service\"][\"functions\"]"
      },
      "plugins": {
        "$ref": "$[\"service\"][\"plugins\"]"
      },
      "custom": {
        "$ref": "$[\"service\"][\"custom\"]"
      },
      "resources": {
        "$ref": "$[\"service\"][\"resources\"]"
      }
    },
    "layers": {},
    "isDashboardMonitoringPreconfigured": false
  },
  "package": {
    "artifactDirectoryName": "serverless/octo-kimble-datalake/local/1628680290676-2021-08-11T11:11:30.676Z",
    "artifact": "src/KimbleDatastream/bin/release/netcoreapp3.1/KimbleDatastream-package.zip"
  }
}